{
    "key": "group_5acbbd211b9d8",
    "title": "Testimonial Info",
    "fields": [
        {
            "key": "field_5acbbd2cd5dd5",
            "label": "Testimonial Text",
            "name": "testimonial_text",
            "type": "textarea",
            "instructions": "Do not include quotes (\" \"). New lines \/ line breaks will be ignored.",
            "required": 1,
            "conditional_logic": 0,
            "wrapper": {
                "width": "",
                "class": "",
                "id": ""
            },
            "default_value": "",
            "placeholder": "",
            "maxlength": "",
            "rows": 4,
            "new_lines": ""
        },
        {
            "key": "field_5acbbd98d5dd6",
            "label": "Star Rating",
            "name": "star_rating",
            "type": "radio",
            "instructions": "",
            "required": 1,
            "conditional_logic": 0,
            "wrapper": {
                "width": "",
                "class": "",
                "id": ""
            },
            "choices": {
                "5": "5 Stars",
                "4": "4 Stars"
            },
            "allow_null": 0,
            "other_choice": 0,
            "save_other_choice": 0,
            "default_value": 5,
            "layout": "horizontal",
            "return_format": "value"
        }
    ],
    "location": [
        [
            {
                "param": "post_type",
                "operator": "==",
                "value": "testimonial"
            }
        ]
    ],
    "menu_order": 0,
    "position": "normal",
    "style": "default",
    "label_placement": "top",
    "instruction_placement": "label",
    "hide_on_screen": "",
    "active": 1,
    "description": "",
    "modified": 1523301873
}