{
    "key": "group_5acbc45f1185e",
    "title": "Site Options",
    "fields": [
        {
            "key": "field_5acbc46d8a96c",
            "label": "Review Link",
            "name": "review_link",
            "type": "link",
            "instructions": "URL where folks can leave a review.",
            "required": 0,
            "conditional_logic": 0,
            "wrapper": {
                "width": "",
                "class": "",
                "id": ""
            },
            "return_format": "url"
        },
        {
            "key": "field_5acfdcfad3ff0",
            "label": "Directions Link",
            "name": "directions_link",
            "type": "link",
            "instructions": "URL where visitors can find directions to the office. Likely the contact page.",
            "required": 0,
            "conditional_logic": 0,
            "wrapper": {
                "width": "",
                "class": "",
                "id": ""
            },
            "return_format": "url"
        },
        {
            "key": "field_5ad9096226eab",
            "label": "Storage Units Link",
            "name": "storage_units_link",
            "type": "link",
            "instructions": "",
            "required": 0,
            "conditional_logic": 0,
            "wrapper": {
                "width": "",
                "class": "",
                "id": ""
            },
            "return_format": "url"
        },
        {
            "key": "field_5b58ce959055c",
            "label": "Fitting Room Link",
            "name": "fitting_room_link",
            "type": "link",
            "instructions": "",
            "required": 0,
            "conditional_logic": 0,
            "wrapper": {
                "width": "",
                "class": "",
                "id": ""
            },
            "return_format": "url"
        }
    ],
    "location": [
        [
            {
                "param": "options_page",
                "operator": "==",
                "value": "citywide-site-options"
            }
        ]
    ],
    "menu_order": 0,
    "position": "normal",
    "style": "default",
    "label_placement": "top",
    "instruction_placement": "label",
    "hide_on_screen": "",
    "active": 1,
    "description": "",
    "modified": 1532546736
}